…
``` r
trash_wheel = 
  read_excel("./data_1/Trash-Wheel-Collection-Totals-7-2020-2.xlsx", sheet = 1, range = cell_cols("A:N")) %>% 
  janitor::clean_names() %>% 
  drop_na(dumpster) %>% 
  drop_na(month) %>% 
  mutate(
    sports_balls = as.integer(round(sports_balls))
  )

trash_wheel
```

    ## # A tibble: 453 × 14
    ##    dumpster month  year date                weight_tons volume_cubic_yards
    ##    <chr>    <chr> <dbl> <dttm>                    <dbl>              <dbl>
    ##  1 1        May    2014 2014-05-16 00:00:00        4.31                 18
    ##  2 2        May    2014 2014-05-16 00:00:00        2.74                 13
    ##  3 3        May    2014 2014-05-16 00:00:00        3.45                 15
    ##  4 4        May    2014 2014-05-17 00:00:00        3.1                  15
    ##  5 5        May    2014 2014-05-17 00:00:00        4.06                 18
    ##  6 6        May    2014 2014-05-20 00:00:00        2.71                 13
    ##  7 7        May    2014 2014-05-21 00:00:00        1.91                  8
    ##  8 8        May    2014 2014-05-28 00:00:00        3.7                  16
    ##  9 9        June   2014 2014-06-05 00:00:00        2.52                 14
    ## 10 10       June   2014 2014-06-11 00:00:00        3.76                 18
    ## # … with 443 more rows, and 8 more variables: plastic_bottles <dbl>,
    ## #   polystyrene <dbl>, cigarette_butts <dbl>, glass_bottles <dbl>,
    ## #   grocery_bags <dbl>, chip_bags <dbl>, sports_balls <int>,
    ## #   homes_powered <dbl>
…
pols_df
```

    ## # A tibble: 822 × 9
    ##     year month     president gov_gop sen_gop rep_gop gov_dem sen_dem rep_dem
    ##    <int> <chr>     <chr>       <int>   <int>   <int>   <int>   <int>   <int>
    ##  1  1947 January   dem            23      51     253      23      45     198
    ##  2  1947 February  dem            23      51     253      23      45     198
    ##  3  1947 March     dem            23      51     253      23      45     198
    ##  4  1947 April     dem            23      51     253      23      45     198
    ##  5  1947 May       dem            23      51     253      23      45     198
    ##  6  1947 June      dem            23      51     253      23      45     198
    ##  7  1947 July      dem            23      51     253      23      45     198
    ##  8  1947 August    dem            23      51     253      23      45     198
    ##  9  1947 September dem            23      51     253      23      45     198
    ## 10  1947 October   dem            23      51     253      23      45     198
    ## # … with 812 more rows
